^C:\USERS\APLAB\DOCUMENTS\PROJECTS\OPTICOIL\CPPCLIENT\SAMPLES\SAMPLECLIENT3D\GLPRINT.CPP
/c /I..\..\INCLUDE /ZI /nologo /W3 /WX- /diagnostics:column /Od /Oy- /D WIN32 /D _DEBUG /D _WINDOWS /Gm /EHsc /RTC1 /MDd /GS /fp:precise /Zc:wchar_t /Zc:forScope /Zc:inline /Fo"DEBUG\\" /Fd"DEBUG\VC142.PDB" /Gd /TP /analyze- /FC C:\USERS\APLAB\DOCUMENTS\PROJECTS\OPTICOIL\CPPCLIENT\SAMPLES\SAMPLECLIENT3D\GLPRINT.CPP
^C:\USERS\APLAB\DOCUMENTS\PROJECTS\OPTICOIL\CPPCLIENT\SAMPLES\SAMPLECLIENT3D\MARKERPOSITIONCOLLECTION.CPP
/c /I..\..\INCLUDE /ZI /nologo /W3 /WX- /diagnostics:column /Od /Oy- /D WIN32 /D _DEBUG /D _WINDOWS /Gm /EHsc /RTC1 /MDd /GS /fp:precise /Zc:wchar_t /Zc:forScope /Zc:inline /Fo"DEBUG\\" /Fd"DEBUG\VC142.PDB" /Gd /TP /analyze- /FC C:\USERS\APLAB\DOCUMENTS\PROJECTS\OPTICOIL\CPPCLIENT\SAMPLES\SAMPLECLIENT3D\MARKERPOSITIONCOLLECTION.CPP
^C:\USERS\APLAB\DOCUMENTS\PROJECTS\OPTICOIL\CPPCLIENT\SAMPLES\SAMPLECLIENT3D\NATUTILS.CPP
/c /I..\..\INCLUDE /ZI /nologo /W3 /WX- /diagnostics:column /Od /Oy- /D WIN32 /D _DEBUG /D _WINDOWS /Gm /EHsc /RTC1 /MDd /GS /fp:precise /Zc:wchar_t /Zc:forScope /Zc:inline /Fo"DEBUG\\" /Fd"DEBUG\VC142.PDB" /Gd /TP /analyze- /FC C:\USERS\APLAB\DOCUMENTS\PROJECTS\OPTICOIL\CPPCLIENT\SAMPLES\SAMPLECLIENT3D\NATUTILS.CPP
^C:\USERS\APLAB\DOCUMENTS\PROJECTS\OPTICOIL\CPPCLIENT\SAMPLES\SAMPLECLIENT3D\OPENGLDRAWINGFUNCTIONS.CPP
/c /I..\..\INCLUDE /ZI /nologo /W3 /WX- /diagnostics:column /Od /Oy- /D WIN32 /D _DEBUG /D _WINDOWS /Gm /EHsc /RTC1 /MDd /GS /fp:precise /Zc:wchar_t /Zc:forScope /Zc:inline /Fo"DEBUG\\" /Fd"DEBUG\VC142.PDB" /Gd /TP /analyze- /FC C:\USERS\APLAB\DOCUMENTS\PROJECTS\OPTICOIL\CPPCLIENT\SAMPLES\SAMPLECLIENT3D\OPENGLDRAWINGFUNCTIONS.CPP
^C:\USERS\APLAB\DOCUMENTS\PROJECTS\OPTICOIL\CPPCLIENT\SAMPLES\SAMPLECLIENT3D\RIGIDBODYCOLLECTION.CPP
/c /I..\..\INCLUDE /ZI /nologo /W3 /WX- /diagnostics:column /Od /Oy- /D WIN32 /D _DEBUG /D _WINDOWS /Gm /EHsc /RTC1 /MDd /GS /fp:precise /Zc:wchar_t /Zc:forScope /Zc:inline /Fo"DEBUG\\" /Fd"DEBUG\VC142.PDB" /Gd /TP /analyze- /FC C:\USERS\APLAB\DOCUMENTS\PROJECTS\OPTICOIL\CPPCLIENT\SAMPLES\SAMPLECLIENT3D\RIGIDBODYCOLLECTION.CPP
^C:\USERS\APLAB\DOCUMENTS\PROJECTS\OPTICOIL\CPPCLIENT\SAMPLES\SAMPLECLIENT3D\SAMPLECLIENT3D.CPP
/c /I..\..\INCLUDE /ZI /nologo /W3 /WX- /diagnostics:column /Od /Oy- /D WIN32 /D _DEBUG /D _WINDOWS /Gm /EHsc /RTC1 /MDd /GS /fp:precise /Zc:wchar_t /Zc:forScope /Zc:inline /Fo"DEBUG\\" /Fd"DEBUG\VC142.PDB" /Gd /TP /analyze- /FC C:\USERS\APLAB\DOCUMENTS\PROJECTS\OPTICOIL\CPPCLIENT\SAMPLES\SAMPLECLIENT3D\SAMPLECLIENT3D.CPP
